3. Explore Advanced Analyses • ComplexMap
…
theme_complexes <- ComplexMap::queryMap(
  cm_obj,
  query = query_label,
  type = "theme"
)
#> Warning in nodes$themeLabel == query: longer object length is not a multiple of
#> shorter object length

# Show the results
theme_complexes %>%
  dplyr::select(complexId, themeLabel, proteinCount, betweenness)
#> # A tibble: 114 × 4
#>    complexId   themeLabel                  proteinCount betweenness
#>    <chr>       <chr>                              <int>       <dbl>
#>  1 CpxMap_0359 BIOCARTA_EICOSANOID_PATHWAY            5      0.154 
#>  2 CpxMap_0414 BIOCARTA_EICOSANOID_PATHWAY            8      0.136 
#>  3 CpxMap_0508 BIOCARTA_EICOSANOID_PATHWAY           42      0.111 
#>  4 CpxMap_0401 BIOCARTA_EICOSANOID_PATHWAY            6      0.100 
#>  5 CpxMap_0509 BIOCARTA_EICOSANOID_PATHWAY          102      0.0918
#>  6 CpxMap_0090 BIOCARTA_EICOSANOID_PATHWAY            4      0.0888
#>  7 CpxMap_0143 BIOCARTA_EICOSANOID_PATHWAY            4      0.0700
#>  8 CpxMap_0182 BIOCARTA_EICOSANOID_PATHWAY            4      0.0657
#>  9 CpxMap_0501 BIOCARTA_EICOSANOID_PATHWAY           20      0.0598
#> 10 CpxMap_0372 BIOCARTA_EICOSANOID_PATHWAY            6      0.0547
#> # ℹ 104 more rows
…
